switch (currentmilkclip)
{ 
    case 2:
    case 3:
        if (orientationchange && orientation != 'lefttilt')
            currentmilkclip += 2;
        break
    case 4:
    case 5:
        if (orientationchange && orientation == 'lefttilt')
            currentmilkclip +=2;
        else return;
        break;
    case 6: currentmilkclip = 2; break;
    case 7: currentmilkclip = 3; break;
    default:break;
};
    
    
    
     if (currentmilkclip <= 3)
    {
        if (orientationchange && orientation != 'lefttilt')
            currentmilkclip += 2;
    } else 
        if (currentmilkclip <= 5)
        {        
            if (orientationchange && orientation == 'lefttilt')
                currentmilkclip +=2;
            else 
                return;    
        } else 
            if (currentmilkclip <= 7)
            {
                currentmilkclip -=4;
            } 
        